\relax 
\providecommand\hyper@newdestlabel[2]{}
\providecommand{\transparent@use}[1]{}
\@writefile{toc}{\contentsline {chapter}{Anhang}{9}{section*.8}}
\@writefile{toc}{\contentsline {chapter}{\numberline {A}SLA Frameworks und Sprachen}{10}{Anhang.a.A}}
\@writefile{lof}{\addvspace {10\p@ }}
\@writefile{lot}{\addvspace {10\p@ }}
\@writefile{toc}{\contentsline {section}{\numberline {A.1}\IeC {\"U}berblick}{10}{section.a.A.1}}
\@writefile{lot}{\contentsline {table}{\numberline {A.1}{\ignorespaces Der \IeC {\"U}berblick einiger existierender SLA Frameworks und Sprachen\relax }}{10}{table.a.A.1}}
\newlabel{test}{{A.1}{10}{Der Überblick einiger existierender SLA Frameworks und Sprachen\relax }{table.a.A.1}{}}
\@writefile{toc}{\contentsline {chapter}{\numberline {B}WS-Agreement (Beispiel)}{11}{Anhang.a.B}}
\@writefile{lof}{\addvspace {10\p@ }}
\@writefile{lot}{\addvspace {10\p@ }}
\newlabel{APP:B}{{B}{11}{WS-Agreement (Beispiel)}{Anhang.a.B}{}}
\@setckpt{./appendix/appendices}{
\setcounter{page}{12}
\setcounter{equation}{0}
\setcounter{enumi}{0}
\setcounter{enumii}{0}
\setcounter{enumiii}{0}
\setcounter{enumiv}{0}
\setcounter{footnote}{0}
\setcounter{mpfootnote}{0}
\setcounter{part}{0}
\setcounter{chapter}{5}
\setcounter{section}{0}
\setcounter{subsection}{0}
\setcounter{subsubsection}{0}
\setcounter{paragraph}{0}
\setcounter{subparagraph}{0}
\setcounter{figure}{0}
\setcounter{table}{0}
\setcounter{pp@next@reset}{0}
\setcounter{@pps}{1}
\setcounter{@ppsavesec}{5}
\setcounter{@ppsaveapp}{2}
\setcounter{parentequation}{0}
\setcounter{NAT@ctr}{0}
\setcounter{ContinuedFloat}{0}
\setcounter{lstnumber}{15}
\setcounter{Item}{0}
\setcounter{Hfootnote}{2}
\setcounter{bookmark@seq@number}{15}
\setcounter{KVtest}{0}
\setcounter{subfigure}{0}
\setcounter{subfigure@save}{0}
\setcounter{lofdepth}{1}
\setcounter{subtable}{0}
\setcounter{subtable@save}{0}
\setcounter{lotdepth}{1}
\setcounter{svgfigure}{0}
\setcounter{definition}{0}
\setcounter{lstlisting}{0}
\setcounter{section@level}{1}
}
