\begin{thebibliography}{3}
\providecommand{\natexlab}[1]{#1}
\providecommand{\url}[1]{\texttt{#1}}
\expandafter\ifx\csname urlstyle\endcsname\relax
  \providecommand{\doi}[1]{doi: #1}\else
  \providecommand{\doi}{doi: \begingroup \urlstyle{rm}\Url}\fi

\bibitem[Ope(2007)]{M:WSA}
\emph{Web Services Agreement Specification (WS-Agreement)}.
\newblock Open Grid Forum, 2007.
\newblock URL \url{https://www.ogf.org/documents/GFD.192.pdf}.
\newblock Update: 10. Oktober, 2011.

\bibitem[Ron and Aliko(2001)]{A:RSC}
S.~Ron and P.~Aliko.
\newblock Service {L}evel {A}greements.
\newblock \emph{Internet NG. Internet NG project {(1999-2001)}}, 2001.
\newblock URL \url{http://ing.ctit.utwente.nl/WU2/}.

\bibitem[Wustenhoff(2002)]{A:SSC}
Edward Wustenhoff.
\newblock Service {L}evel {A}greement in the {D}ata {C}enter.
\newblock \emph{Sun BluePrints}, 2002.
\newblock Sun Microsystems Internet Data Center Group.

\end{thebibliography}
