\relax 
\providecommand\hyper@newdestlabel[2]{}
\providecommand{\transparent@use}[1]{}
\catcode `"\active 
\providecommand\HyperFirstAtBeginDocument{\AtBeginDocument}
\HyperFirstAtBeginDocument{\ifx\hyper@anchor\@undefined
\global\let\oldcontentsline\contentsline
\gdef\contentsline#1#2#3#4{\oldcontentsline{#1}{#2}{#3}}
\global\let\oldnewlabel\newlabel
\gdef\newlabel#1#2{\newlabelxx{#1}#2}
\gdef\newlabelxx#1#2#3#4#5#6{\oldnewlabel{#1}{{#2}{#3}}}
\AtEndDocument{\ifx\hyper@anchor\@undefined
\let\contentsline\oldcontentsline
\let\newlabel\oldnewlabel
\fi}
\fi}
\global\let\hyper@last\relax 
\gdef\HyperFirstAtBeginDocument#1{#1}
\providecommand\HyField@AuxAddToFields[1]{}
\providecommand\HyField@AuxAddToCoFields[2]{}
\bibstyle{plainnat}
\providecommand \oddpage@label [2]{}
\select@language{ngerman}
\@writefile{toc}{\select@language{ngerman}}
\@writefile{lof}{\select@language{ngerman}}
\@writefile{lot}{\select@language{ngerman}}
\@input{chapters/chapter1.aux}
\@input{chapters/chapter2.aux}
\@input{chapters/chapter3.aux}
\@input{chapters/chapter4.aux}
\@input{chapters/chapter5.aux}
\@input{./appendix/appendices.aux}
\bibdata{References}
\bibcite{M:WSA}{{1}{2007}{{Ope}}{{}}}
\bibcite{A:RSC}{{2}{2001}{{Ron and Aliko}}{{}}}
\bibcite{A:SSC}{{3}{2002}{{Wustenhoff}}{{}}}
