\relax 
\providecommand\hyper@newdestlabel[2]{}
\providecommand\HyperFirstAtBeginDocument{\AtBeginDocument}
\HyperFirstAtBeginDocument{\ifx\hyper@anchor\@undefined
\global\let\oldcontentsline\contentsline
\gdef\contentsline#1#2#3#4{\oldcontentsline{#1}{#2}{#3}}
\global\let\oldnewlabel\newlabel
\gdef\newlabel#1#2{\newlabelxx{#1}#2}
\gdef\newlabelxx#1#2#3#4#5#6{\oldnewlabel{#1}{{#2}{#3}}}
\AtEndDocument{\ifx\hyper@anchor\@undefined
\let\contentsline\oldcontentsline
\let\newlabel\oldnewlabel
\fi}
\fi}
\global\let\hyper@last\relax 
\gdef\HyperFirstAtBeginDocument#1{#1}
\providecommand*\HyPL@Entry[1]{}
\catcode `"\active 
\bibstyle{plainnat}
\HyPL@Entry{0<</P(0)>>}
\select@language{ngerman}
\@writefile{toc}{\select@language{ngerman}}
\@writefile{lof}{\select@language{ngerman}}
\@writefile{lot}{\select@language{ngerman}}
\@writefile{nav}{\headcommand {\slideentry {0}{0}{1}{1/1}{}{0}}}
\@writefile{nav}{\headcommand {\beamer@framepages {1}{1}}}
\HyPL@Entry{1<</P(1)>>}
\@writefile{toc}{\beamer@sectionintoc {1}{Themenvorstellung}{2}{0}{1}}
\@writefile{nav}{\headcommand {\sectionentry {1}{Themenvorstellung}{2}{Themenvorstellung}{0}}}
\@writefile{nav}{\headcommand {\beamer@sectionpages {1}{1}}}
\@writefile{nav}{\headcommand {\beamer@subsectionpages {1}{1}}}
\@writefile{nav}{\headcommand {\slideentry {1}{0}{1}{2/2}{}{0}}}
\@writefile{nav}{\headcommand {\beamer@framepages {2}{2}}}
\HyPL@Entry{2<</P(2)>>}
\@writefile{nav}{\headcommand {\slideentry {1}{0}{2}{3/3}{}{0}}}
\@writefile{nav}{\headcommand {\beamer@framepages {3}{3}}}
\HyPL@Entry{3<</P(3)>>}
\@writefile{nav}{\headcommand {\slideentry {1}{0}{3}{4/4}{}{0}}}
\@writefile{nav}{\headcommand {\beamer@framepages {4}{4}}}
\HyPL@Entry{4<</P(4)>>}
\@writefile{nav}{\headcommand {\slideentry {1}{0}{4}{5/5}{}{0}}}
\@writefile{nav}{\headcommand {\beamer@framepages {5}{5}}}
\@writefile{nav}{\headcommand {\beamer@partpages {1}{5}}}
\@writefile{nav}{\headcommand {\beamer@subsectionpages {2}{5}}}
\@writefile{nav}{\headcommand {\beamer@sectionpages {2}{5}}}
\@writefile{nav}{\headcommand {\beamer@documentpages {5}}}
\@writefile{nav}{\headcommand {\def \inserttotalframenumber {4}}}
