\relax 
\providecommand\hyper@newdestlabel[2]{}
\providecommand{\transparent@use}[1]{}
\@writefile{toc}{\contentsline {chapter}{\numberline {5}Herausforderungen und Fazit}{8}{chapter.5}}
\@writefile{lof}{\addvspace {10\p@ }}
\@writefile{lot}{\addvspace {10\p@ }}
\@writefile{toc}{\contentsline {section}{\numberline {5.1}Herausforderungen}{8}{section.5.1}}
\@writefile{toc}{\contentsline {section}{\numberline {5.2}Fazit}{8}{section.5.2}}
\@setckpt{chapters/chapter5}{
\setcounter{page}{9}
\setcounter{equation}{0}
\setcounter{enumi}{0}
\setcounter{enumii}{0}
\setcounter{enumiii}{0}
\setcounter{enumiv}{0}
\setcounter{footnote}{0}
\setcounter{mpfootnote}{0}
\setcounter{part}{0}
\setcounter{chapter}{5}
\setcounter{section}{2}
\setcounter{subsection}{0}
\setcounter{subsubsection}{0}
\setcounter{paragraph}{0}
\setcounter{subparagraph}{0}
\setcounter{figure}{0}
\setcounter{table}{0}
\setcounter{pp@next@reset}{0}
\setcounter{@pps}{0}
\setcounter{@ppsavesec}{0}
\setcounter{@ppsaveapp}{0}
\setcounter{parentequation}{0}
\setcounter{NAT@ctr}{0}
\setcounter{ContinuedFloat}{0}
\setcounter{lstnumber}{15}
\setcounter{Item}{0}
\setcounter{Hfootnote}{2}
\setcounter{bookmark@seq@number}{11}
\setcounter{KVtest}{0}
\setcounter{subfigure}{0}
\setcounter{subfigure@save}{0}
\setcounter{lofdepth}{1}
\setcounter{subtable}{0}
\setcounter{subtable@save}{0}
\setcounter{lotdepth}{1}
\setcounter{svgfigure}{0}
\setcounter{definition}{0}
\setcounter{lstlisting}{0}
\setcounter{section@level}{1}
}
