\relax 
\providecommand\hyper@newdestlabel[2]{}
\providecommand{\transparent@use}[1]{}
\citation{A:RSC}
\citation{A:SSC}
\citation{M:WSA}
\@writefile{toc}{\contentsline {chapter}{\numberline {3}Realisierung von SLA}{3}{chapter.3}}
\@writefile{lof}{\addvspace {10\p@ }}
\@writefile{lot}{\addvspace {10\p@ }}
\@writefile{toc}{\contentsline {section}{\numberline {3.1}WS-Agreement}{3}{section.3.1}}
\@writefile{toc}{\contentsline {subsection}{\numberline {3.1.1}Allgemeines \IeC {\"u}ber die Sprache}{3}{subsection.3.1.1}}
\@writefile{lof}{\contentsline {figure}{\numberline {3.1}{\ignorespaces Die schematische Darstellung des WS-Agreement-Protokolls\relax }}{4}{figure.caption.7}}
\providecommand*\caption@xref[2]{\@setref\relax\@undefined{#1}}
\newlabel{ABB:WS-A-PRO}{{3.1}{4}{Die schematische Darstellung des WS-Agreement-Protokolls\relax }{figure.caption.7}{}}
\@writefile{toc}{\contentsline {subsection}{\numberline {3.1.2}Aufbau eines Agreements}{4}{subsection.3.1.2}}
\newlabel{LST:WSASTRUCTURE}{{3.1}{5}{Der Aufbau einer mit WS-Agreement beschriebenen Vereinbarung}{lstlisting.3.1}{}}
\@writefile{lol}{\contentsline {lstlisting}{\numberline {3.1}Der Aufbau einer mit WS-Agreement beschriebenen Vereinbarung}{5}{lstlisting.3.1}}
\newlabel{LST:WSAKONTEXT}{{3.2}{5}{Der mit WS-Agreement beschriebene Kontext einer Vereinbarung}{lstlisting.3.2}{}}
\@writefile{lol}{\contentsline {lstlisting}{\numberline {3.2}Der mit WS-Agreement beschriebene Kontext einer Vereinbarung}{5}{lstlisting.3.2}}
\newlabel{LST:WSAGARANTEETERM}{{3.3}{6}{Die mit WS-Agreement beschriebenen Bedingungen einer Vereinbarung}{lstlisting.3.3}{}}
\@writefile{lol}{\contentsline {lstlisting}{\numberline {3.3}Die mit WS-Agreement beschriebenen Bedingungen einer Vereinbarung}{6}{lstlisting.3.3}}
\@setckpt{chapters/chapter3}{
\setcounter{page}{7}
\setcounter{equation}{0}
\setcounter{enumi}{0}
\setcounter{enumii}{0}
\setcounter{enumiii}{0}
\setcounter{enumiv}{0}
\setcounter{footnote}{2}
\setcounter{mpfootnote}{0}
\setcounter{part}{0}
\setcounter{chapter}{3}
\setcounter{section}{1}
\setcounter{subsection}{2}
\setcounter{subsubsection}{0}
\setcounter{paragraph}{0}
\setcounter{subparagraph}{0}
\setcounter{figure}{1}
\setcounter{table}{0}
\setcounter{pp@next@reset}{0}
\setcounter{@pps}{0}
\setcounter{@ppsavesec}{0}
\setcounter{@ppsaveapp}{0}
\setcounter{parentequation}{0}
\setcounter{NAT@ctr}{0}
\setcounter{ContinuedFloat}{0}
\setcounter{lstnumber}{15}
\setcounter{Item}{0}
\setcounter{Hfootnote}{2}
\setcounter{bookmark@seq@number}{7}
\setcounter{KVtest}{0}
\setcounter{subfigure}{0}
\setcounter{subfigure@save}{0}
\setcounter{lofdepth}{1}
\setcounter{subtable}{0}
\setcounter{subtable@save}{0}
\setcounter{lotdepth}{1}
\setcounter{svgfigure}{0}
\setcounter{definition}{0}
\setcounter{lstlisting}{3}
\setcounter{section@level}{2}
}
